%YAML 1.1
%TAG !u! tag:unity3d.com,2011:
--- !u!1045 &1
EditorBuildSettings:
  m_ObjectHideFlags: 0
  serializedVersion: 2
  m_Scenes:
  - enabled: 1
    path: Assets/Scenes/UNETSteamworks.unity
    guid: 1d49cf0f104b40842b7e8670b4a8f077
  - enabled: 1
    path: Assets/Scenes/OnlineScene.unity
    guid: d45da56b02c94044198e9682c99f607a
  m_configObjects: {}
